992047 280948 525
103477 596934 470
17292 118950 354
295016 915564 525
426445 742239 509
110713 416542 449
31166 305270 443
960344 571098 525
103501 133939 354
484133 315897 449
383497 396640 436
61623 101 340
919876 237715 525
249847 906894 525
500859 472976 426
138009 112052 349
11969 452743 449
455479 31090 449
340343 425958 449
955804 468362 525
536840 1511 470
534416 69402 470
802315 756695 468
505972 356 449
181545 770413 509
113372 894097 525
943834 38898 525
864907 222857 525
318217 133651 443
850265 130303 525
120431 576907 470
218810 833200 509
225801 323540 443
414340 508510 444
500625 805518 509
711958 861897 525
771009 30943 509
957458 412967 525
555595 192755 470
879820 431892 525
123314 997144 525
820736 829665 419
409 451389 449
59957 55283 322
485283 414095 444
534834 513792 439
88542 266470 443
55103 702195 509
670660 953212 525
427096 607182 470
237903 588536 470
305235 140432 443
687329 832645 504
500762 623384 470
718984 471493 509
490377 713129 509
970647 902877 507
425773 939902 525
406334 229458 443
91501 921420 525
984798 197492 525
551280 130142 470
31465 797915 509
447189 834622 509
9346 509525 449
769109 400658 509
565475 525691 452
888624 100014 525
757488 661904 504
891408 808754 525
464949 98783 449
514946 518324 395
361921 746457 509
449553 129706 449
667493 433231 509
206506 884126 525
333828 152521 443
43633 847751 525
499545 912020 525
669642 819375 504
969747 913736 507
846847 912870 476
135135 678466 509
389058 269117 441
307323 285169 389
623752 404547 470
46933 404306 443
598249 787390 509
125500 718662 509
130443 784260 509
430186 835652 509
681503 428334 509
58683 394009 443
539766 648717 509
534912 326991 470
176239 701812 509
458081 816753 509
885440 677905 525
769918 480734 509
861709 493984 525
42676 788199 509
978145 42358 525
894398 901186 401
540979 303155 470
362350 856233 525
349315 779787 509
957240 142517 525
401080 706041 509
676577 88072 509
26088 774790 509
805661 165325 509
841762 251487 525
421559 969871 525
596100 224844 470
413953 217045 449
953965 449756 525
286013 215661 443
793486 753178 468
841829 643105 525
899771 116715 525
849513 905228 445
502420 691519 509
67673 480731 449
548751 924827 525
590452 650443 509
178487 547699 470
654520 23306 509
147852 138858 375
179465 285922 443
354597 488910 449
858881 922674 476
171538 163789 352
318622 210389 443
516354 324242 470
596839 242064 470
854083 102298 525
144614 863328 525
667274 941977 525
913885 873083 476
318755 585468 470
50396 841718 525
834283 11805 509
825228 880228 525
84086 884836 525
875038 779628 525
96867 325118 443
33192 782670 509
269093 226200 443
806767 638303 504
144761 818657 509
295954 205263 443
545647 530511 408
475168 472634 382
337087 620878 470
30516 684608 509
206944 924392 525
646275 618104 509
365342 239796 441
179950 661117 509
1364 68511 340
441901 224295 449
879625 163827 525
584138 675036 509
534071 16145 470
822611 998681 525
191237 695390 509
541347 511850 470
181464 624719 470
636839 734295 504
675021 198602 509
787978 141199 509
92048 937968 525
867608 249219 525
653583 241810 509
565036 117893 470
792062 470736 509
297564 589657 470
546276 45636 470
454068 993445 525
309909 473643 449
530047 599749 452
355115 378250 423
244260 796902 509
833472 82164 509
21709 577205 470
247999 100803 443
172305 468455 449
978800 52965 525
47216 917237 525
951202 549955 525
37619 572306 470
4151 236799 443
622490 495673 470
178244 166987 347
750324 561064 509
951287 212864 525
968903 170811 525
777372 523900 509
734025 701122 504
563588 640525 509
768796 167293 509
41636 394412 443
623390 750439 509
45979 876290 525
671492 111920 509
988982 810601 525
233190 14261 443
509708 649012 509
554320 883340 525
210549 492478 449
849830 924586 476
577338 284860 470
477792 362185 449
708414 851897 525
582137 617222 447
657376 1982 509
653704 491925 509
492719 780501 509
222809 823655 509
271939 793558 509
566994 88870 470
59082 445380 449
47509 36799 314
488920 882961 525
639387 723719 504
688353 139768 509
938133 23146 525
751800 337891 509
1603 554157 470
242295 292634 407
842529 774122 525
256382 777955 509
939022 395120 525
300691 610509 470
524279 799771 509
442749 653463 509
738351 960046 525
871309 222655 525
893105 172735 525
228711 800628 509
348284 543507 470
721530 836445 468
659572 363763 509
807577 246195 509
624003 681112 509
202433 204356 342
923956 361783 525
416179 863585 525
782624 512485 509
76866 668451 509
50738 234922 443
786258 989543 525
764150 896136 525
170218 627249 509
116535 367196 443
27449 49316 324
330818 670991 509
822714 808563 450
103293 302592 443
26604 841880 525
682654 827239 504
267128 253773 407
736491 642032 504
572910 555869 421
651186 757193 504
944667 729493 525
991018 861792 507
938936 577564 525
66753 349044 443
662685 332499 509
479279 784219 509
151098 254116 443
619779 722329 509
816949 461162 509
545559 793549 509
720418 705685 411
326318 481657 449
672624 643175 442
480157 377713 449
368793 681025 509
937908 67541 525
95759 115477 354
34035 278990 443
441857 365753 449
756982 368753 509
607457 303432 470
389757 289875 441
240492 362230 441
206280 549722 470
935200 637884 525
604420 691179 509
792486 752312 468
454506 483565 444
268566 924375 525
825872 754451 468
35020 648617 509
36224 456854 449
55311 609717 470
926483 265929 525
217162 235083 443
646589 656513 385
328812 705662 509
776409 301191 509
353777 652653 509
70031 644068 509
883924 152981 525
170327 355133 443
709110 811856 468
215719 680475 509
246056 830815 509
780612 520911 509
196411 352470 443
193264 243189 443
915133 745243 525
805381 78986 509
323144 1515 443
481274 124173 449
865087 481789 525
944048 618894 525
77651 864273 525
63142 780471 509
136742 179512 383
467672 546949 470
888390 850817 445
189480 963621 525
145936 644611 509
508456 764809 509
113213 401893 443
422354 302040 449
201873 671497 509
345770 692969 509
150906 295505 443
964189 7402 525
153602 42089 375
7039 150971 375
283707 500783 449
632189 301692 509
13123 392169 443
272605 549399 470
990846 578020 525
309620 332804 384
973936 485374 525
313395 396236 441
1247 698388 509
675063 468727 509
269321 68841 443
466167 543477 470
259379 883468 525
132957 391443 443
774772 939518 525
496238 432715 444
160972 668740 509
32214 809666 509
867959 41038 525
89535 471821 449
659241 191595 509
530605 494358 470
593522 783884 509
58428 468753 449
291171 172541 443
680824 908407 525
878410 572638 525
225288 785413 509
752329 351234 509
967151 810087 525
428559 897142 525
754771 914786 525
944878 823555 525
915389 383065 525
1424 290942 443
234062 94162 443
499776 758575 509
525856 973551 525
468654 698396 509
590532 517217 452
804794 685629 504
746686 344518 509
35544 95473 351
812038 784717 468
450843 185617 449
365606 38745 443
621090 822795 509
78210 236887 443
39487 871032 525
886857 920300 476
913820 259759 525
749683 859239 525
149676 710729 509
527240 111338 470
431590 294350 449
507016 854031 525
936921 414803 525
425358 377623 449
570030 110012 470
805135 868835 525
766212 338135 509
135211 610690 470
3400 265170 443
205695 198525 355
227595 977844 525
418031 32777 449
617200 25469 470
190712 398360 443
976954 143665 525
776006 54455 509
532647 101882 470
168159 390444 443
726212 136091 509
15686 28797 308
581400 840770 525
526937 158832 470
729357 678185 504
790241 594479 509
486087 192337 449
838181 248782 525
148284 523805 470
570184 102349 470
168276 138972 383
552681 590884 434
150229 85197 375
944365 229994 525
932616 117041 525
804574 84080 509
644221 593980 509
553916 635191 509
551678 482227 470
267535 360591 441
487303 301981 449
765721 857499 525
696288 68981 509
908701 361233 525
102060 962434 525
975568 490009 525
83333 60892 351
129206 486570 449
188720 410577 449
907001 611955 525
799647 987809 525
349261 21725 443
929429 932690 370
321003 200690 443
940003 762020 525
188011 185581 347
711736 110045 509
256836 894700 525
456525 935723 525
784564 598549 509
950196 340503 525
329995 683563 509
262679 504674 449
838000 804584 525
662242 698091 442
270643 267060 407
196940 251628 443
970393 780173 525
147565 470945 449
755938 298345 509
417461 919944 525
852373 291498 525
211780 334753 443
310330 528178 470
817746 260371 509
49974 280015 443
104054 835615 509
744563 593387 509
996597 254139 525
589872 420095 470
312601 100386 443
229664 44805 386
890310 773049 525
216839 452273 449
840805 714155 525
615112 611999 447
997608 764398 525
178389 716918 509
959865 661797 525
595042 732124 509
501520 631446 509
169803 871618 525
271859 83492 443
430636 884107 525
325067 525113 470
242128 992094 525
552020 783104 509
508566 321346 449
440678 180016 449
277072 823135 509
51646 358565 443
228241 812498 509
986691 798889 525
238423 866919 525
973129 158381 525
681034 484782 509
533324 903573 525
442842 550455 470
713478 300436 509
561588 89863 470
754054 812869 468
676176 878190 525
310039 860154 525
34163 872183 525
955421 583003 525
466753 179850 449
241465 855031 525
339856 782431 509
27077 915907 525
565247 787899 509
752616 444862 509
924207 921691 445
649462 682098 442
662152 605034 509
338030 623491 470
944205 422424 525
56140 566044 470
476951 705137 509
394282 587734 470
361395 373797 392
407386 765931 509
171440 680703 509
385579 465145 449
700446 583076 509
19415 223375 386
300330 262054 407
413556 594105 470
661566 364300 509
610664 766488 509
450842 617946 470
888036 986109 507
777655 110411 509
187090 35511 383
225526 390953 443
205220 563768 470
986305 958860 458
952778 493970 525
184314 953671 525
779123 210058 509
188588 639219 509
492918 5336 449
149519 517051 470
61686 43703 340
409304 507672 449
991342 857564 507
432432 643725 509
497998 501237 395
397089 904400 525
87907 356622 443
78722 590237 470
331300 161694 443
595697 571232 434
838643 55136 525
717552 648506 504
301535 901442 525
87301 448801 449
557520 348039 470
60306 246090 443
401051 815305 509
394592 873070 525
921285 270024 525
52934 549450 470
349713 974910 525
806412 181161 509
425504 545323 470
271232 495875 449
870819 741202 525
445152 329585 449
465023 353694 449
288101 922154 525
907725 153417 525
431417 841468 525
416000 423627 387
989820 610381 525
305332 257816 407
584554 584606 297
203636 97578 383
630282 55361 509
609424 692683 509
823820 626148 509
764943 880472 525
123384 446837 449
659670 775702 504
618109 702646 509
871309 762944 525
824353 684690 504
927535 496844 525
459513 659757 509
505558 450301 444
335124 473358 449
394731 169014 443
245681 244203 319
327143 680808 509
15229 442395 449
706398 877796 525
59644 882776 525
971348 767702 525
538423 942317 525
922848 630994 525
504781 746235 509
186103 589190 470
524012 595571 452
220761 859270 525
264789 487123 449
653174 348652 509
102350 412418 449
138966 175406 383
306206 601550 470
844482 638908 525
334997 549657 470
101117 584748 470
804258 316054 509
383537 521623 470
557992 912493 525
55310 474599 449
319384 340048 384
611979 633100 509
432603 286510 449
1809 358425 443
433743 500023 444
659303 759991 504
33492 540542 470
827433 169839 509
927110 687689 525
193663 248724 443
164430 380608 443
941708 375748 525
322762 12289 443
553390 764787 509
929007 895932 476
138998 199465 383
50080 393631 443
677792 235127 509
633184 582204 509
422972 616596 470
85143 604447 470
517491 609864 452
781579 225964 509
318324 495869 449
203696 380329 443
629326 766048 504
885864 54096 525
938869 906805 476
558572 749075 509
454323 538124 470
568429 906002 525
103696 198821 383
530161 848888 525
526954 402006 470
37552 805709 509
574219 179289 470
360944 379357 423
944426 799054 525
824722 247798 509
330940 114678 443
674296 404386 509
928443 454586 525
587376 282537 470
508754 89066 449
786979 742308 468
22447 760003 509
666638 737208 504
176077 475418 449
688627 901345 525
298256 780100 509
729800 502964 509
639370 453577 509
871401 673256 525
123132 369202 443
221547 218361 355
441499 653981 509
286971 534764 470
673514 899257 525
267715 734512 509
371715 990139 525
672482 816967 504
815742 794057 468
505482 907798 525
871570 279452 525
984365 315980 525
365252 760549 509
415165 570121 470
991178 518886 525
169449 992212 525
405779 292303 441
927616 532282 525
574405 569990 377
141595 114591 349
296921 516394 470
610795 222136 470
520965 107084 470
913243 469962 525
71587 841593 525
114019 312954 443
363256 893231 525
477510 259888 449
216834 579100 470
441903 529531 470
76615 372194 443
224826 755770 509
396588 947062 525
456454 843641 525
45979 1941 324
850148 53892 525
607173 910880 525
745887 791231 468
17121 903429 525
94627 665247 509
936785 569059 525
680660 908598 525
476426 268040 449
761410 320915 509
578831 693397 509
807578 209393 509
269289 369451 441
93040 420283 449
537091 228322 470
238827 660852 509
906716 956160 507
448626 6400 449
500533 758343 509
714386 565573 509
246571 918940 525
22036 663990 509
551003 958581 525
281059 532131 470
214992 736664 509
997131 893294 507
702095 403802 509
603920 90131 470
454767 957594 525
89726 501652 449
871988 681155 525
670220 369881 509
14212 758883 509
247717 331742 407
522519 435239 470
218185 880560 525
699322 44087 509
465041 566018 470
961572 136571 525
918396 522135 525
841886 510252 525
170090 75275 383
911138 596054 525
43146 899878 525
976894 897490 507
339455 5207 443
430478 107522 449
237109 961863 525
757043 522494 509
531648 591329 452
471785 446242 444
510738 511163 333
757184 59980 509
533816 884421 525
995918 286966 525
905238 241360 525
961228 579996 525
667159 75219 509
212818 909114 525
983878 718127 525
458487 457420 338
17179 377437 443
210940 111469 383
580605 986459 525
481659 624617 470
435993 905583 525
80423 58324 351
266139 202668 443
549084 383033 470
265784 260422 407
302686 623864 470
85323 64719 351
630507 577059 509
352073 345430 441
493339 492527 426
625139 521177 452
825607 800311 450
266796 817620 509
720630 939287 525
191019 172675 365
495087 266460 449
94463 158994 383
141142 816659 509
353600 793572 509
603043 920592 525
916059 36760 525
384963 401220 436
209542 61064 383
848972 396913 525
75149 475326 449
757982 780294 468
870994 887613 445
195412 694208 509
183040 945715 525
305450 240561 407
936912 89297 525
153709 855957 525
749583 509410 509
804074 371770 509
630425 696390 442
331048 393607 441
45485 688459 509
507590 770832 509
428297 729303 509
748971 651263 504
885534 787277 525
798392 835013 450
137139 108427 349
403450 210184 443
806649 237965 509
719434 387538 509
830260 771446 468
645798 39138 509
424623 259956 449
519252 373671 470
112956 112998 292
349423 83339 443
825454 375092 509
453375 623674 470
84117 123561 354
874314 954769 507
304533 180200 443
456699 498851 444
719237 401961 509
948907 825333 525
590935 509967 470
569019 828999 509
226269 604337 470
626573 17417 509
456604 525729 470
753979 808550 468
989848 451542 525
164878 954630 525
547780 690291 509
359713 512912 470
749959 3636 509
724690 78296 509
671103 92469 509
759053 972247 525
724876 634843 504
812249 357518 509
612702 213963 470
507369 690212 509
588732 400972 470
359231 164893 443
857817 294116 525
84142 711828 509
919852 863731 476
234950 208544 443
781270 726000 468
389109 961792 525
47690 605093 470
555216 205661 470
953183 334676 525
222549 812151 509
683335 653706 442
801176 558988 509
379461 41 443
732522 345339 509
760458 626352 504
904540 368150 525
838343 654644 525
751897 570082 509
757620 763763 380
581363 706560 509
266362 269921 345
133422 837361 509
994485 434518 525
344112 76294 443
522423 871958 525
652163 498715 509
902433 35031 525
798137 186133 509
796345 849237 525
231119 187045 443
813416 161987 509
813099 670377 504
981292 960522 458
875125 388558 525
408606 781065 509
228224 352689 443
974910 827562 525
854064 845524 419
24573 985514 525
420573 636196 509
261352 431599 449
467799 15488 449
256305 831146 509
323600 442789 449
832384 228837 509
442940 546462 470
74188 216210 383
294868 239603 407
146548 520704 470
80219 164705 383
273088 613200 470
679636 765429 504
597823 608140 403
489306 832913 509
981691 328697 525
512231 451543 470
374428 837330 509
629049 901732 525
723017 12933 509
58498 793954 509
307831 242110 407
968649 116197 525
11622 415999 449
63205 971939 525
722860 103431 509
142991 703635 509
601442 113751 470
477880 561873 470
723614 852618 525
975634 984680 427
288174 908345 525
857050 233964 525
201977 66861 383
300473 699468 509
558510 83237 470
524596 303424 470
235031 535009 470
366107 251386 441
681548 98764 509
651732 87140 509
444761 620177 470
282610 370462 441
454306 158638 449
906403 924513 476
911802 203404 525
780710 52406 509
404162 123189 443
71916 891734 525
690081 500601 509
752004 319098 509
950290 884684 507
466463 408163 449
962441 281352 525
962016 980255 458
485703 12371 449
923271 419439 525
732334 974356 525
42168 338470 443
89408 841483 525
844394 851502 419
788149 624181 509
841397 231170 525
586543 748945 509
756112 259569 509
972097 824264 525
638047 245443 509
458442 612045 470
283336 614277 470
630212 968878 525
823166 985460 525
404693 863693 525
192454 741426 509
82267 292510 443
898519 760841 525
995883 748678 525
970812 249433 525
736538 377354 509
324729 813064 509
738077 383670 509
588020 314988 470
71191 153578 375
792623 376437 509
829364 446739 509
535192 586338 452
827447 136016 509
677297 404922 509
87086 747461 509
274982 387766 441
543349 758335 509
775718 980023 525
310699 146348 443
477310 778436 509
305314 28184 443
167120 625417 470
730069 71041 509
119221 434686 449
382196 144788 443
870983 921662 476
302911 911867 525
392141 823472 509
472834 535653 470
12038 64816 340
866917 476349 525
942160 511698 525
196263 964055 525
405798 611151 470
649734 951815 525
939441 66771 525
787312 921099 525
736766 559453 509
628588 334277 509
423547 433455 418
625335 669858 509
622165 144106 470
247344 982290 525
56847 309404 443